Cost Count,Cost ID,Cost Damage,Cost NBT,Max Cost Item Count,Product Count,Product ID,Product Damage,Product NBT,Min Product Item Count
2,minecraft:iron_ingot,0,.,10000000,32,minecraft:bread,0,.,1024
4,minecraft:diamond,0,.,10000000,64,minecraft:cooked_beef,0,.,256
2,minecraft:diamond,0,.,10000000,64,minecraft:cooked_chicken,0,.,256
4,minecraft:diamond,0,.,10000000,64,minecraft:golden_carrot,0,.,256
48,minecraft:bread,0,.,3000,2,minecraft:iron_ingot,0,.,700
64,minecraft:cooked_beef,0,.,3000,3,minecraft:diamond,0,.,700
64,minecraft:cooked_chicken,0,.,3000,1,minecraft:diamond,0,.,700
64,minecraft:golden_carrot,0,.,3000,3,minecraft:diamond,0,.,700