Cost Count,Cost ID,Cost Damage,Cost NBT,Max Cost Item Count,Product Count,Product ID,Product Damage,Product NBT,Min Product Item Count
1,minecraft:diamond,0,.,1000000,16,minecraft:obsidian,0,.,256
24,minecraft:obsidian,0,.,10000,1,minecraft:diamond,0,.,800
5,minecraft:diamond,0,.,1000000,1,minecraft:crying_obsidian,0,.,64
1,minecraft:crying_obsidian,0,.,10000,3,minecraft:diamond,0,.,100
1,minecraft:diamond,0,.,1000000,256,minecraft:ice,0,.,256
350,minecraft:ice,0,.,20000,1,minecraft:diamond,0,.,1500
1,minecraft:diamond,0,.,1000000,25,minecraft:packed_ice,0,.,256
35,minecraft:packed_ice,0,.,20000,1,minecraft:diamond,0,.,1500
1,minecraft:diamond,0,.,1000000,1,minecraft:blue_ice,0,.,4000
2,minecraft:blue_ice,0,.,20000,1,minecraft:diamond,0,.,1500
1,minecraft:diamond,0,.,1000000,48,minecraft:sugar_cane,0,.,4000
64,minecraft:sugar_cane,0,.,10000,1,minecraft:diamond,0,.,1500
1,minecraft:diamond,0,.,1000000,48,minecraft:paper,0,.,4000
64,minecraft:paper,0,.,10000,1,minecraft:diamond,0,.,1500
1,minecraft:diamond,0,.,1000000,48,minecraft:sand,0,.,4000
64,minecraft:sand,0,.,10000,1,minecraft:diamond,0,.,1500
1,minecraft:diamond,0,.,1000000,48,minecraft:gravel,0,.,4000
64,minecraft:gravel,0,.,10000,1,minecraft:diamond,0,.,1500
1,minecraft:diamond,0,.,1000000,24,minecraft:clay_ball,0,.,4000
32,minecraft:clay_ball,0,.,10000,1,minecraft:diamond,0,.,1500
1,minecraft:diamond,0,.,1000000,12,minecraft:slime_ball,0,.,4000
16,minecraft:slime_ball,0,.,10000,1,minecraft:diamond,0,.,1500
1,minecraft:diamond,0,.,1000000,48,minecraft:cactus,0,.,4000
64,minecraft:cactus,0,.,10000,1,minecraft:diamond,0,.,1500
1,minecraft:diamond,0,.,1000000,128,minecraft:kelp,0,.,4000
164,minecraft:kelp,0,.,10000,1,minecraft:diamond,0,.,1500
1,minecraft:diamond,0,.,1000000,48,minecraft:dried_kelp,0,.,4000
64,minecraft:dried_kelp,0,.,10000,1,minecraft:diamond,0,.,1500